0.73725,0.7522,0.77764,0.741,0.74465,0.76557
0.90369,0.82788,0.83055,0.74685,0.81671,0.80584
0.74488,0.75772,0.72635,0.73676,0.67111,0.7323
0.83904,0.81401,0.84946,0.80195,0.80796,0.78028
0.75895,0.78483,0.74479,0.72441,0.76701,0.75066
0.81916,0.74274,0.81771,0.75377,0.7593,0.76716
0.83368,0.79597,0.80556,0.7907,0.84976,0.78327
0.8316,0.84892,0.85439,0.85599,0.85809,0.84996
0.8185,0.80623,0.76271,0.76861,0.71098,0.75456
0.74792,0.73924,0.73289,0.72241,0.7401,0.71025
0.73033,0.71916,0.70213,0.79612,0.6924,0.69655
0.77398,0.79538,0.81666,0.69251,0.7753,0.75091
0.74143,0.72402,0.71953,0.72179,0.78732,0.71635
0.77476,0.7865,0.73982,0.78164,0.78104,0.71846
0.71415,0.74675,0.6946,0.67951,0.74722,0.73126
0.77802,0.732,0.72509,0.6385,0.72115,0.73339
0.7991,0.78473,0.81417,0.82684,0.79119,0.74717
0.88325,0.84213,0.84858,0.72304,0.84167,0.80519
0.82548,0.83701,0.78233,0.80233,0.77224,0.76934
0.83641,0.81651,0.79944,0.79284,0.81552,0.80456
0.88338,0.84397,0.88245,0.78719,0.83029,0.82736
0.86992,0.82255,0.8356,0.81992,0.85993,0.85054
0.77824,0.75818,0.71643,0.73296,0.75269,0.7499
0.84797,0.78192,0.80036,0.72541,0.78371,0.75423
0.80699,0.77778,0.79183,0.77839,0.78473,0.80611
0.85304,0.81169,0.7932,0.75957,0.79412,0.81687
0.82642,0.88021,0.84674,0.77261,0.82986,0.84461
0.81566,0.82625,0.84728,0.78394,0.79731,0.78027
0.8695,0.78639,0.82876,0.81948,0.83639,0.83817
0.86758,0.84393,0.83307,0.7749,0.86386,0.84552
0.79001,0.77434,0.72455,0.7719,0.76885,0.72575
0.82852,0.81309,0.80189,0.75269,0.78978,0.76269
0.82072,0.78571,0.80639,0.71716,0.75606,0.80523
0.77378,0.75737,0.73008,0.70299,0.74105,0.75795
0.81623,0.75881,0.82117,0.6895,0.75338,0.75167
0.8138,0.77964,0.7947,0.7687,0.79286,0.79753
0.84619,0.81347,0.77679,0.80212,0.78739,0.75323
0.85581,0.84644,0.84098,0.85639,0.85202,0.8244
0.86932,0.79447,0.79401,0.81126,0.84459,0.77105
0.76204,0.73922,0.73823,0.6963,0.73441,0.68719
0.8327,0.75409,0.7501,0.76861,0.78687,0.80407
0.79232,0.73414,0.71248,0.76696,0.68891,0.76525
0.75726,0.77797,0.74007,0.769,0.7091,0.74373
0.83188,0.79919,0.79585,0.76168,0.73336,0.79882
0.73035,0.74471,0.75258,0.70828,0.75149,0.68638
0.81161,0.83128,0.84549,0.84247,0.86778,0.82829
0.88798,0.87979,0.88621,0.83313,0.86154,0.82406
0.86638,0.81705,0.80143,0.80154,0.79119,0.83597
0.82068,0.78834,0.80519,0.77492,0.77439,0.76324
0.84036,0.82034,0.75205,0.76867,0.83668,0.82433
0.88129,0.82853,0.81101,0.77861,0.79865,0.79145
0.81963,0.78085,0.79291,0.79,0.78772,0.75025
0.80721,0.80587,0.79292,0.79105,0.80134,0.80873
0.83669,0.81315,0.86712,0.75637,0.81354,0.81575
0.83312,0.81911,0.85297,0.74066,0.77429,0.78335
0.89736,0.84948,0.86022,0.8168,0.85005,0.83935
0.8553,0.8353,0.82367,0.83207,0.85733,0.82407
0.88304,0.87507,0.8854,0.84187,0.85132,0.83625
0.81284,0.76883,0.78901,0.76311,0.78777,0.78744
0.77442,0.7483,0.73403,0.64284,0.67823,0.69373
