0.88501,0.84191,0.8548,0.77116,0.68757,0.83072
0.96114,0.95325,0.94708,0.85574,0.91382,0.93065
0.9063,0.91401,0.89118,0.81649,0.80868,0.87077
0.8859,0.82703,0.89357,0.70189,0.82788,0.81754
0.84023,0.85032,0.87807,0.73052,0.80186,0.8025
0.95113,0.83953,0.86864,0.90758,0.8915,0.91798
0.92223,0.92566,0.90626,0.88414,0.91879,0.87696
0.88929,0.8664,0.8942,0.87019,0.86603,0.91733
0.83336,0.83152,0.87943,0.87681,0.84745,0.86477
0.83359,0.78124,0.70127,0.80016,0.85522,0.8427
0.81643,0.8208,0.89884,0.76615,0.80428,0.82901
0.84925,0.85751,0.85435,0.77689,0.87847,0.82713
0.85882,0.87448,0.83291,0.84812,0.78188,0.74322
0.84987,0.82385,0.78646,0.77502,0.82626,0.83963
0.89955,0.85312,0.84928,0.83795,0.88884,0.85729
0.86489,0.87011,0.82761,0.80495,0.82889,0.75769
0.95777,0.91348,0.92841,0.86953,0.93957,0.91153
0.92458,0.92318,0.95027,0.88885,0.95744,0.93156
0.95634,0.88333,0.95615,0.8403,0.83103,0.89494
0.9036,0.83432,0.87293,0.86872,0.87037,0.8435
0.96677,0.89731,0.94509,0.91774,0.93501,0.93902
0.94291,0.92109,0.9207,0.85722,0.94671,0.89191
0.86526,0.89084,0.85189,0.78973,0.79739,0.86906
0.948,0.89284,0.8382,0.87112,0.83052,0.84853
0.90852,0.90299,0.8804,0.87843,0.8429,0.78245
0.928,0.92657,0.88226,0.87945,0.89352,0.88248
0.90511,0.9401,0.93987,0.83817,0.88867,0.86154
0.8856,0.89163,0.91264,0.87127,0.89629,0.89453
0.94113,0.93923,0.89487,0.76909,0.90475,0.8944
0.94121,0.965,0.91955,0.90162,0.95411,0.89857
0.85733,0.85593,0.86254,0.86141,0.87481,0.83563
0.75877,0.80705,0.81412,0.82365,0.82626,0.81944
0.85114,0.87428,0.82322,0.86852,0.77337,0.8473
0.83576,0.81094,0.81217,0.76564,0.78322,0.81075
0.8244,0.87453,0.90024,0.73023,0.81085,0.77125
0.82136,0.84127,0.89022,0.81402,0.8079,0.80387
0.9426,0.86911,0.90276,0.91215,0.862,0.92738
0.84952,0.95119,0.95551,0.95055,0.92339,0.88236
0.92657,0.94177,0.93975,0.84464,0.93282,0.87489
0.71175,0.8202,0.78248,0.62469,0.76668,0.79112
0.9104,0.90771,0.89491,0.88743,0.84889,0.84716
0.92995,0.87485,0.82864,0.78179,0.82674,0.84193
0.89352,0.8159,0.91976,0.71521,0.7112,0.75956
0.84772,0.84865,0.81287,0.78533,0.72413,0.88889
0.84305,0.80865,0.84774,0.82745,0.77183,0.78751
0.81128,0.84198,0.87066,0.92011,0.92728,0.85221
0.94528,0.93194,0.92716,0.82076,0.87486,0.85558
0.90206,0.89532,0.92948,0.8954,0.93455,0.92563
0.85672,0.86024,0.92925,0.88888,0.9054,0.87377
0.94482,0.96265,0.94989,0.89005,0.86448,0.92603
0.90711,0.87447,0.90129,0.89039,0.87473,0.90106
0.88209,0.85758,0.92691,0.88535,0.87648,0.84241
0.91285,0.87862,0.9547,0.8976,0.88699,0.91694
0.94222,0.95297,0.97767,0.89988,0.89965,0.86679
0.95595,0.93216,0.95684,0.85378,0.89337,0.88271
0.96713,0.92809,0.97087,0.93522,0.94228,0.95853
0.955,0.92751,0.95146,0.93661,0.92002,0.88213
0.98441,0.92241,0.89598,0.93747,0.97194,0.92939
0.94931,0.89555,0.93436,0.81625,0.86673,0.86105
0.86892,0.82253,0.91593,0.72419,0.76711,0.80552
