1.1281,1.7444,1.9666,2.2902,3.9553,1.8624
0.8862,1.262,0.87822,2.0655,1.6564,1.4592
1.0568,1.2779,2.0077,3.2398,2.3277,1.9704
1.5281,2.2849,1.564,3.1785,2.0989,1.8224
1.8521,1.3075,2.0065,2.8449,1.6995,1.4999
0.79129,3.6222,2.798,1.2017,1.5593,1.634
0.79327,0.80266,1.2551,1.7187,1.4221,1.5215
1.0299,1.0074,1.4903,1.0099,1.0455,0.73375
3.3978,1.9124,2.161,1.0143,1.5264,1.0611
2.1467,2.3239,4.1139,2.2526,2.0847,1.8252
2.3899,2.9382,2.7888,2.1242,2.2217,1.7928
3.504,2.3802,3.5643,2.2021,1.693,2.2828
2.292,2.0455,2.6374,1.4386,2.3801,2.5637
2.0549,2.7102,2.6694,1.7286,1.3899,1.7475
1.5069,1.6198,1.9981,2.2529,1.2971,1.6045
2.3412,2.1154,2.9795,1.532,2.393,3.7555
0.63309,1.2734,1.4448,2.9377,1.6133,1.6413
1.5476,1.3689,0.93645,1.8508,1.1047,1.1976
0.46436,1.5562,0.44737,1.6092,1.6488,0.98667
1.1988,2.8976,1.5459,1.132,1.7924,1.6546
0.33847,1.3054,0.63273,1.1113,0.63516,0.80506
1.3887,1.5818,1.409,2.405,1.7471,1.5304
0.92006,1.4016,1.6814,1.987,1.5782,1.603
1.168,1.818,3.1249,1.4715,3.3887,2.5672
0.81811,1.154,1.3704,1.2212,1.9979,2.3851
0.54712,1.4566,1.7822,1.1786,1.0952,1.1631
1.6779,1.019,1.537,3.7469,1.7455,1.8096
0.9845,1.5746,0.8547,0.85364,1.1677,1.3745
0.65693,1.2709,1.3086,5.5669,2.2968,2.4339
1.7806,0.85628,1.3826,2.7506,1.3089,1.7725
1.3099,1.3824,1.6387,1.3684,1.9517,1.5644
2.208,2.0674,3.2007,1.4392,2.2213,1.8505
1.3816,1.2623,2.1146,0.65777,1.6819,2.0004
1.0795,2.7175,2.7491,2.1137,2.0127,1.6229
2.394,1.774,1.4086,3.252,2.9565,2.9005
2.0313,2.1986,1.8712,2.0622,1.75,2.0908
0.69546,2.155,2.7871,1.7852,1.8522,1.192
1.896,1.9593,1.6851,0.71057,0.9844,1.6408
1.9834,1.0578,1.5754,3.0294,1.8034,2.098
4.7507,2.6421,3.6827,4.8414,2.486,1.8506
0.51419,0.98922,2.3784,1.8505,1.9601,1.6938
0.73762,2.1448,2.9729,2.2253,2.0784,2.0326
1.0091,2.0744,2.5858,4.0658,2.7281,1.9779
1.922,1.6749,2.513,2.425,3.3632,1.7438
2.1971,2.6433,1.9501,2.2108,2.5542,2.7211
3.3708,2.4229,2.3599,0.81158,0.61061,1.4373
0.89566,1.223,1.6983,4.0116,2.6983,2.7196
1.1971,1.0942,1.3063,1.3283,1.1483,1.0966
2.6375,2.1451,1.6217,1.5602,1.3383,1.2771
0.75704,0.80226,0.78348,1.3123,1.3932,1.2058
1.263,1.841,0.88656,1.3693,1.5636,1.5215
2.9236,2.2324,2.5029,3.2461,2.2651,2.7271
0.82175,1.0831,0.97314,1.3733,1.093,1.2717
0.78307,2.007,0.46417,1.4981,1.8252,1.9515
0.32997,0.6811,0.74522,1.7628,1.4473,1.796
0.42931,0.92619,0.84937,0.67555,1.1745,0.75635
0.3349,1.1975,0.73674,0.93904,1.1817,1.4588
0.18247,1.6109,1.7396,1.0959,1.1719,1.9409
0.64401,1.168,1.371,3.8147,2.3606,2.1071
2.3771,1.9172,1.6153,2.1864,2.4083,2.3317
