500/Knossos7_500.pfm
500/TunnelView(2)_500.pfm
500/DelicateArch_500.pfm
500/Route66Museum_500.pfm
500/TheGrotto_500.pfm
500/snow_500.pfm
500/FourCornersStorm_500.pfm
500/B_(15)_500.pfm
500/Knossos6_500.pfm
500/MasonLake(1)_500.pfm
500/StoneTower1_500.pfm
500/fireplace_02_000484_500.pfm
500/M3MiddlePond_500.pfm
500/FORTH1_500.pfm
500/RevelStoke_500.pfm
500/UpheavalDome_500.pfm
500/DevilsGolfCourse_500.pfm
500/HancockKitchenOutside_500.pfm
500/AgiaGalini_500.pfm
500/RoundStoneBarn_500.pfm
500/CemeteryTree(1)_500.pfm
500/00012_500.pfm
500/CanadianFalls_500.pfm
500/smith_welding_000918_500.pfm
500/DevilsTower_500.pfm
500/SmokyTunnel_500.pfm
500/Flamingo_500.pfm
500/JesseBrownsCabin_500.pfm
500/poker_fullshot_000478_500.pfm
500/LabBooth_500.pfm
500/B_(10)_500.pfm
500/MasonLake(2)_500.pfm
500/AmikeusBeaverDamPM2_500.pfm
500/MtRushmore(2)_500.pfm
500/PeckLake_500.pfm
500/KingsCanyon_500.pfm
500/MirrorLake_500.pfm
500/carousel_fireworks_01_001227_500.pfm
500/00126_500.pfm
500/LasVegasStore_500.pfm
500/00083_500.pfm
500/OtterPoint_500.pfm
500/carousel_fireworks_05_000870_500.pfm
500/B_(16)_500.pfm
500/OldFaithfulInn_500.pfm
500/CreteSeashore1_500.pfm
500/CadesCove_500.pfm
500/BloomingGorse(1)_500.pfm
500/HancockKitchenInside_500.pfm
500/WillyDesk_500.pfm
500/HooverGarage_500.pfm
500/WallDrug_500.pfm
500/PaulBunyan_500.pfm
500/CemeteryTree(2)_500.pfm
500/507_500.pfm
500/carousel_fireworks_02_001055_500.pfm
500/SunsetPoint(2)_500.pfm
500/TupperLake(1)_500.pfm
500/LabTypewriter_500.pfm
500/beerfest_lightshow_04_003906_500.pfm
500/TheNarrows(2)_500.pfm
500/LittleRiver_500.pfm
500/bistro_03_000914_500.pfm
500/Petroglyphs_500.pfm
500/TaughannockFalls_500.pfm
500/Exploratorium(2)_500.pfm
500/Zurich2_500.pfm
500/fishing_longshot_001249_500.pfm
500/HorseshoeLake_500.pfm
500/MiddlePond_500.pfm
500/MackinacBridge_500.pfm
500/WestBranchAusable(1)_500.pfm
500/MarketMires2_500.pfm
500/DevilsBathtub_500.pfm
500/B_(9)_500.pfm
500/MammothHotSprings_500.pfm
500/HooverDam_500.pfm
500/showgirl_02_000684_500.pfm
500/HallofFame_500.pfm
500/GoldenGate(1)_500.pfm
