0.55472,0.5958,0.66564,0.67571,0.65377,0.74336
0.82633,0.80233,0.79422,0.56092,0.71597,0.76165
0.65091,0.7473,0.61528,0.65037,0.59756,0.77617
0.86848,0.77365,0.81672,0.68397,0.63599,0.73462
0.74837,0.79445,0.61572,0.7354,0.72689,0.66073
0.77977,0.63317,0.75213,0.62057,0.70747,0.76433
0.84124,0.7312,0.8151,0.7057,0.75469,0.80941
0.60751,0.78483,0.75998,0.68294,0.70595,0.7618
0.7796,0.80456,0.75935,0.75858,0.60983,0.74311
0.568,0.64687,0.63466,0.63048,0.60086,0.71176
0.60283,0.65273,0.49526,0.5954,0.61746,0.64213
0.85318,0.6788,0.84199,0.65728,0.61187,0.77645
0.55113,0.52323,0.4991,0.5452,0.54527,0.59957
0.69198,0.68444,0.6768,0.61076,0.60961,0.64915
0.63846,0.57754,0.58882,0.57222,0.64532,0.60845
0.78684,0.60366,0.57712,0.59872,0.69532,0.75226
0.84386,0.77177,0.75948,0.63902,0.74552,0.76082
0.91564,0.7836,0.86123,0.58167,0.75066,0.76874
0.78438,0.79449,0.76465,0.71078,0.78122,0.78176
0.88721,0.82628,0.81039,0.75551,0.72649,0.80994
0.77877,0.80176,0.84024,0.79024,0.76223,0.83708
0.89719,0.88236,0.77158,0.78839,0.71527,0.77002
0.72245,0.72116,0.6092,0.59977,0.71018,0.71151
0.87449,0.76788,0.76714,0.72153,0.78526,0.77169
0.69941,0.71786,0.7331,0.71286,0.71235,0.79469
0.70194,0.71675,0.64254,0.68039,0.65096,0.7559
0.75731,0.86368,0.76461,0.72272,0.76695,0.83448
0.6856,0.7626,0.76615,0.71109,0.66217,0.75562
0.75926,0.69338,0.72332,0.73342,0.73715,0.77085
0.93661,0.88335,0.90476,0.72978,0.89293,0.91403
0.65245,0.70008,0.55042,0.61888,0.59309,0.71166
0.80069,0.73231,0.74612,0.71011,0.67665,0.71913
0.881,0.80617,0.72518,0.68229,0.79548,0.76652
0.71454,0.71135,0.53589,0.67212,0.65584,0.74548
0.8495,0.71845,0.81542,0.69728,0.76628,0.75025
0.79557,0.75962,0.72882,0.69372,0.71918,0.82078
0.85578,0.8376,0.7799,0.81739,0.73016,0.79149
0.82374,0.78433,0.81666,0.75427,0.79931,0.7993
0.94627,0.78349,0.78373,0.83202,0.88754,0.82363
0.59771,0.67274,0.57559,0.54041,0.63502,0.59655
0.82273,0.78265,0.60655,0.72006,0.77925,0.79778
0.60958,0.62542,0.64206,0.67182,0.54572,0.66175
0.66982,0.66919,0.55487,0.65614,0.51559,0.68188
0.73581,0.78561,0.74164,0.68854,0.58657,0.81136
0.57627,0.69735,0.65978,0.58851,0.68674,0.73502
0.70979,0.73863,0.76549,0.7283,0.71296,0.7344
0.76619,0.79154,0.81786,0.69358,0.71651,0.76893
0.87585,0.8786,0.73612,0.73764,0.84758,0.8471
0.70228,0.78354,0.75046,0.64068,0.63292,0.67344
0.82122,0.78933,0.73714,0.80549,0.76291,0.76047
0.7634,0.84768,0.82859,0.72155,0.79799,0.75519
0.88173,0.80121,0.7899,0.77989,0.75362,0.79287
0.76339,0.7275,0.7239,0.68207,0.71802,0.79086
0.79532,0.72897,0.77493,0.67343,0.74362,0.76374
0.76027,0.78756,0.77437,0.70693,0.7326,0.7447
0.89325,0.88595,0.86912,0.79361,0.85743,0.82043
0.91037,0.81714,0.78521,0.74525,0.79644,0.8031
0.91797,0.8998,0.92812,0.77322,0.87999,0.86221
0.76707,0.70294,0.67375,0.76028,0.70204,0.78183
0.84715,0.78638,0.75338,0.74201,0.66589,0.80744
