0.61235,0.52121,0.57248,0.43624,0.49344,0.5206
0.76933,0.67705,0.72123,0.58092,0.52254,0.6125
0.60253,0.64265,0.53132,0.5861,0.54183,0.55193
0.54797,0.48745,0.55874,0.4318,0.47439,0.51897
0.44442,0.58457,0.45638,0.52249,0.53506,0.53994
0.64435,0.55019,0.58015,0.56749,0.61584,0.63205
0.57904,0.63953,0.6056,0.58604,0.58485,0.65548
0.50711,0.57545,0.51155,0.57404,0.48786,0.54093
0.57688,0.5981,0.57407,0.6248,0.54412,0.63232
0.452,0.50646,0.42578,0.54139,0.49778,0.51188
0.50841,0.45576,0.4978,0.46441,0.47235,0.46344
0.49256,0.57441,0.51728,0.47835,0.47377,0.56401
0.61152,0.55673,0.54047,0.51035,0.43701,0.54603
0.45086,0.48818,0.48319,0.51447,0.53013,0.49722
0.68901,0.61179,0.50599,0.56243,0.60049,0.60367
0.66653,0.58607,0.53182,0.52856,0.56248,0.58632
0.69277,0.66754,0.6157,0.58821,0.66658,0.65089
0.71109,0.70406,0.71552,0.66812,0.69217,0.68266
0.73291,0.61433,0.70438,0.58491,0.5408,0.61326
0.64956,0.50982,0.59004,0.60912,0.63342,0.64344
0.73858,0.6287,0.70944,0.68214,0.69188,0.70669
0.73049,0.58676,0.54611,0.61268,0.5976,0.63081
0.51316,0.56082,0.52805,0.4975,0.52438,0.57067
0.62515,0.61034,0.57279,0.60852,0.53774,0.59343
0.58409,0.5235,0.53007,0.58415,0.6111,0.48433
0.64684,0.65668,0.54291,0.56409,0.54548,0.55672
0.61445,0.63756,0.60289,0.55096,0.579,0.64266
0.60177,0.60006,0.62284,0.52404,0.55055,0.56351
0.61203,0.64315,0.55987,0.56081,0.56857,0.56944
0.68425,0.69732,0.62185,0.63702,0.67235,0.66875
0.52224,0.60433,0.58435,0.55396,0.5314,0.57967
0.41828,0.50506,0.504,0.52272,0.5284,0.52215
0.60828,0.56986,0.5537,0.56473,0.49474,0.5875
0.58051,0.50031,0.4539,0.52582,0.48798,0.59127
0.54277,0.5649,0.54673,0.51651,0.52891,0.52461
0.61248,0.53868,0.57241,0.54156,0.57213,0.59028
0.68729,0.6019,0.57408,0.63891,0.61581,0.68058
0.59324,0.57443,0.5602,0.57765,0.60268,0.60247
0.52926,0.68361,0.5744,0.53353,0.65578,0.62684
0.42673,0.49885,0.41989,0.44256,0.45456,0.49214
0.61671,0.62261,0.57065,0.47701,0.55759,0.63476
0.56567,0.50982,0.47097,0.55254,0.53681,0.54277
0.62778,0.49287,0.44701,0.48301,0.47881,0.53656
0.50545,0.56861,0.45851,0.57421,0.43365,0.56282
0.59836,0.53387,0.56831,0.48425,0.44461,0.51056
0.52337,0.53774,0.54518,0.53952,0.59545,0.50713
0.68359,0.63273,0.64113,0.50816,0.4981,0.60797
0.57921,0.62903,0.62244,0.59896,0.62969,0.62549
0.57225,0.57431,0.61156,0.50686,0.51416,0.54847
0.71503,0.69222,0.67254,0.68461,0.59935,0.68296
0.68677,0.60272,0.67397,0.62607,0.60914,0.69554
0.60272,0.62039,0.59412,0.62651,0.60862,0.58292
0.65523,0.6279,0.62784,0.60219,0.55873,0.66399
0.6626,0.59498,0.71953,0.63981,0.59227,0.64018
0.75196,0.67222,0.66307,0.59211,0.60794,0.65549
0.69399,0.6889,0.72527,0.66161,0.70795,0.69752
0.66669,0.66845,0.65604,0.61369,0.64606,0.63957
0.84421,0.75274,0.69076,0.62899,0.7816,0.73083
0.57641,0.64449,0.58757,0.54662,0.58459,0.63039
0.6682,0.64223,0.6265,0.52236,0.48169,0.55654
