4000/HancockKitchenInside_4000.pfm 1487610237449 1487610247500
4000/HancockKitchenOutside_4000.pfm 1487610249509 1487610259559
4000/BarHarborSunrise_4000.pfm 1487610261569 1487610271615
4000/SunsetPoint(1)_4000.pfm 1487610273619 1487610283637
4000/PaulBunyan_4000.pfm 1487610285640 1487610295659
4000/MirrorLake_4000.pfm 1487610297664 1487610307682
4000/DevilsGolfCourse_4000.pfm 1487610309686 1487610319706
4000/TunnelView(2)_4000.pfm 1487610321710 1487610331728
4000/WaffleHouse_4000.pfm 1487610333733 1487610343751
4000/MtRushmoreFlags_4000.pfm 1487610345755 1487610355773
4000/UpheavalDome_4000.pfm 1487610357778 1487610367796
4000/TaughannockFalls_4000.pfm 1487610369800 1487610379817
4000/TupperLake(2)_4000.pfm 1487610381822 1487610391840
4000/CanadianFalls_4000.pfm 1487610393845 1487610403863
4000/PeckLake_4000.pfm 1487610405866 1487610415886
4000/RedwoodSunset_4000.pfm 1487610417891 1487610427910
4000/CadesCove_4000.pfm 1487610429914 1487610439932
4000/HalfDomeSunset_4000.pfm 1487610441937 1487610451956
4000/NiagaraFalls_4000.pfm 1487610453961 1487610463980
4000/McKeesPub_4000.pfm 1487610465984 1487610476002
1000/OldFaithfulInn_1000.pfm 1487610478007 1487610488025
1000/JesseBrownsCabin_1000.pfm 1487610490029 1487610500049
1000/DevilsBathtub_1000.pfm 1487610502053 1487610512072
1000/GoldenGate(2)_1000.pfm 1487610514077 1487610524095
1000/507_1000.pfm 1487610526099 1487610536118
1000/LasVegasStore_1000.pfm 1487610538122 1487610548142
1000/M3MiddlePond_1000.pfm 1487610550147 1487610560165
1000/MiddlePond_1000.pfm 1487610562169 1487610572187
1000/DelicateFlowers_1000.pfm 1487610574189 1487610584196
1000/RITTiger_1000.pfm 1487610586198 1487610596206
1000/Petroglyphs_1000.pfm 1487610598208 1487610608215
1000/GoldenGate(1)_1000.pfm 1487610610217 1487610620226
1000/WillyDesk_1000.pfm 1487610622227 1487610632234
1000/LuxoDoubleChecker_1000.pfm 1487610634236 1487610644243
1000/BloomingGorse(2)_1000.pfm 1487610646246 1487610656255
1000/HallofFame_1000.pfm 1487610658256 1487610668263
1000/AhwahneeGreatLounge_1000.pfm 1487610670265 1487610680273
1000/AirBellowsGap_1000.pfm 1487610682275 1487610692282
1000/HancockSeedField_1000.pfm 1487610694283 1487610704290
1000/CemeteryTree(1)_1000.pfm 1487610706292 1487610716300
2000/WestBranchAusable(1)_2000.pfm 1487610718301 1487610728309
2000/AmikeusBeaverDamPM1_2000.pfm 1487610730311 1487610740319
2000/LittleRiver_2000.pfm 1487610742320 1487610752328
2000/BarHarborPresunrise_2000.pfm 1487610754329 1487610764338
2000/LabTypewriter_2000.pfm 1487610766341 1487610776349
2000/WallDrug_2000.pfm 1487610778351 1487610788359
2000/FourCornersStorm_2000.pfm 1487610790362 1487610800370
2000/BenJerrys_2000.pfm 1487610802372 1487610812379
2000/MackinacBridge_2000.pfm 1487610814381 1487610824388
2000/LetchworthTeaTable(1)_2000.pfm 1487610826390 1487610836399
2000/TheNarrows(2)_2000.pfm 1487610838400 1487610848408
2000/SmokyTunnel_2000.pfm 1487610850410 1487610860417
2000/KingsCanyon_2000.pfm 1487610862418 1487610872424
2000/BalancedRock_2000.pfm 1487610874426 1487610884429
2000/Route66Museum_2000.pfm 1487610886430 1487610896434
2000/LabWindow_2000.pfm 1487610898434 1487610908440
2000/BloomingGorse(1)_2000.pfm 1487610910441 1487610920447
2000/MammothHotSprings_2000.pfm 1487610922447 1487610932456
2000/DevilsTower_2000.pfm 1487610934457 1487610944463
2000/DelicateArch_2000.pfm 1487610946465 1487610956474
500/TheGrotto_500.pfm 1487610958474 1487610968479
500/MasonLake(1)_500.pfm 1487610970481 1487610980490
500/BandonSunset(2)_500.pfm 1487610982490 1487610992497
500/BigfootPass_500.pfm 1487610994498 1487611004501
500/HooverGarage_500.pfm 1487611006502 1487611016504
500/TupperLake(1)_500.pfm 1487611018505 1487611028507
500/Zentrum_500.pfm 1487611030509 1487611040516
500/Frontier_500.pfm 1487611042516 1487611052524
500/CemeteryTree(2)_500.pfm 1487611054526 1487611064534
500/ArtistPalette_500.pfm 1487611066535 1487611076544
500/NorthBubble_500.pfm 1487611078545 1487611088550
500/HDRMark_500.pfm 1487611090552 1487611100555
500/Exploratorium(2)_500.pfm 1487611102556 1487611112560
500/RoundStoneBarn_500.pfm 1487611114561 1487611124564
500/Peppermill_500.pfm 1487611126566 1487611136571
500/LabBooth_500.pfm 1487611138572 1487611148579
500/MtRushmore(2)_500.pfm 1487611150581 1487611160587
500/HooverDam_500.pfm 1487611162588 1487611172595
500/Flamingo_500.pfm 1487611174595 1487611184600
500/OtterPoint_500.pfm 1487611186602 1487611196607
