1000/DevilsGolfCourse_1000.pfm 1489060283576 1489060293578
1000/Petroglyphs_1000.pfm 1489060295578 1489060305579
1000/HancockKitchenOutside_1000.pfm 1489060307580 1489060317581
1000/LabWindow_1000.pfm 1489060319582 1489060329583
1000/DevilsTower_1000.pfm 1489060331583 1489060341584
1000/CemeteryTree(2)_1000.pfm 1489060343585 1489060353585
1000/AmikeusBeaverDamPM1_1000.pfm 1489060355586 1489060365587
1000/WestBranchAusable(1)_1000.pfm 1489060367587 1489060377587
1000/WaffleHouse_1000.pfm 1489060379588 1489060389589
1000/TunnelView(2)_1000.pfm 1489060391590 1489060401591
1000/MackinacBridge_1000.pfm 1489060403592 1489060413593
1000/BloomingGorse(1)_1000.pfm 1489060415594 1489060425594
1000/OldFaithfulInn_1000.pfm 1489060427594 1489060437596
1000/LasVegasStore_1000.pfm 1489060439596 1489060449596
1000/BloomingGorse(2)_1000.pfm 1489060451597 1489060461598
1000/HallofFame_1000.pfm 1489060463599 1489060473599
1000/CanadianFalls_1000.pfm 1489060475599 1489060485599
1000/Frontier_1000.pfm 1489060487600 1489060497601
1000/CadesCove_1000.pfm 1489060499601 1489060509602
1000/HancockSeedField_1000.pfm 1489060511603 1489060521604
4000/BarHarborPresunrise_4000.pfm 1489060523604 1489060533604
4000/FourCornersStorm_4000.pfm 1489060535605 1489060545606
4000/JesseBrownsCabin_4000.pfm 1489060547606 1489060557608
4000/NiagaraFalls_4000.pfm 1489060559608 1489060569609
4000/TupperLake(2)_4000.pfm 1489060571610 1489060581609
4000/CemeteryTree(1)_4000.pfm 1489060583610 1489060593611
4000/HalfDomeSunset_4000.pfm 1489060595612 1489060605613
4000/LuxoDoubleChecker_4000.pfm 1489060607614 1489060617614
4000/LetchworthTeaTable(1)_4000.pfm 1489060619615 1489060629616
4000/Route66Museum_4000.pfm 1489060631617 1489060641618
4000/RoundStoneBarn_4000.pfm 1489060643618 1489060653619
4000/MtRushmore(2)_4000.pfm 1489060655620 1489060665621
4000/DelicateArch_4000.pfm 1489060667621 1489060677621
4000/GoldenGate(1)_4000.pfm 1489060679621 1489060689621
4000/MirrorLake_4000.pfm 1489060691622 1489060701623
4000/TupperLake(1)_4000.pfm 1489060703623 1489060713624
4000/TheNarrows(2)_4000.pfm 1489060715624 1489060725625
4000/BarHarborSunrise_4000.pfm 1489060727626 1489060737627
4000/BandonSunset(2)_4000.pfm 1489060739628 1489060749629
4000/Exploratorium(2)_4000.pfm 1489060751631 1489060761631
500/PaulBunyan_500.pfm 1489060763631 1489060773631
500/Zentrum_500.pfm 1489060775632 1489060785632
500/HooverDam_500.pfm 1489060787632 1489060797633
500/UpheavalDome_500.pfm 1489060799633 1489060809633
500/LabTypewriter_500.pfm 1489060811634 1489060821636
500/RITTiger_500.pfm 1489060823637 1489060833637
500/HooverGarage_500.pfm 1489060835638 1489060845639
500/WillyDesk_500.pfm 1489060847639 1489060857640
500/TaughannockFalls_500.pfm 1489060859641 1489060869642
500/WallDrug_500.pfm 1489060871643 1489060881644
500/507_500.pfm 1489060883644 1489060893645
500/DevilsBathtub_500.pfm 1489060895645 1489060905645
500/SmokyTunnel_500.pfm 1489060907646 1489060917647
500/Flamingo_500.pfm 1489060919648 1489060929649
500/SunsetPoint(1)_500.pfm 1489060931650 1489060941651
500/AhwahneeGreatLounge_500.pfm 1489060943651 1489060953652
500/OtterPoint_500.pfm 1489060955652 1489060965655
500/DelicateFlowers_500.pfm 1489060967656 1489060977662
500/BalancedRock_500.pfm 1489060979662 1489060989664
500/HDRMark_500.pfm 1489060991665 1489061001667
2000/LabBooth_2000.pfm 1489061003668 1489061013668
2000/PeckLake_2000.pfm 1489061015668 1489061025670
2000/MtRushmoreFlags_2000.pfm 1489061027671 1489061037675
2000/AirBellowsGap_2000.pfm 1489061039675 1489061049677
2000/KingsCanyon_2000.pfm 1489061051677 1489061061678
2000/LittleRiver_2000.pfm 1489061063678 1489061073682
2000/RedwoodSunset_2000.pfm 1489061075683 1489061085685
2000/HancockKitchenInside_2000.pfm 1489061087686 1489061097691
2000/Peppermill_2000.pfm 1489061099692 1489061109696
2000/M3MiddlePond_2000.pfm 1489061111696 1489061121702
2000/GoldenGate(2)_2000.pfm 1489061123702 1489061133702
2000/MammothHotSprings_2000.pfm 1489061135703 1489061145706
2000/MasonLake(1)_2000.pfm 1489061147707 1489061157707
2000/MiddlePond_2000.pfm 1489061159707 1489061169707
2000/ArtistPalette_2000.pfm 1489061171708 1489061181709
2000/NorthBubble_2000.pfm 1489061183709 1489061193710
2000/BenJerrys_2000.pfm 1489061195710 1489061205712
2000/TheGrotto_2000.pfm 1489061207712 1489061217716
2000/McKeesPub_2000.pfm 1489061219717 1489061229723
2000/BigfootPass_2000.pfm 1489061231724 1489061241729
