4000/HalfDomeSunset_4000.pfm 1489077511304 1489077521305
4000/HooverGarage_4000.pfm 1489077523306 1489077533307
4000/SmokyTunnel_4000.pfm 1489077535309 1489077545311
4000/BalancedRock_4000.pfm 1489077547312 1489077557312
4000/MtRushmore(2)_4000.pfm 1489077559312 1489077569314
4000/LabBooth_4000.pfm 1489077571315 1489077581315
4000/BloomingGorse(2)_4000.pfm 1489077583316 1489077593318
4000/MiddlePond_4000.pfm 1489077595319 1489077605321
4000/DevilsBathtub_4000.pfm 1489077607321 1489077617322
4000/DevilsTower_4000.pfm 1489077619322 1489077629324
4000/MirrorLake_4000.pfm 1489077631324 1489077641325
4000/BandonSunset(2)_4000.pfm 1489077643325 1489077653327
4000/LuxoDoubleChecker_4000.pfm 1489077655328 1489077665330
4000/GoldenGate(1)_4000.pfm 1489077667330 1489077677332
4000/NorthBubble_4000.pfm 1489077679333 1489077689334
4000/OldFaithfulInn_4000.pfm 1489077691334 1489077701335
4000/PaulBunyan_4000.pfm 1489077703335 1489077713337
4000/FourCornersStorm_4000.pfm 1489077715339 1489077725340
4000/McKeesPub_4000.pfm 1489077727340 1489077737342
4000/Peppermill_4000.pfm 1489077739343 1489077749345
500/LetchworthTeaTable(1)_500.pfm 1489077751346 1489077761349
500/CemeteryTree(2)_500.pfm 1489077763349 1489077773350
500/WallDrug_500.pfm 1489077775352 1489077785355
500/LabTypewriter_500.pfm 1489077787355 1489077797356
500/WestBranchAusable(1)_500.pfm 1489077799356 1489077809358
500/Petroglyphs_500.pfm 1489077811359 1489077821361
500/MtRushmoreFlags_500.pfm 1489077823361 1489077833363
500/LasVegasStore_500.pfm 1489077835364 1489077845366
500/CadesCove_500.pfm 1489077847367 1489077857368
500/M3MiddlePond_500.pfm 1489077859368 1489077869371
500/KingsCanyon_500.pfm 1489077871372 1489077881373
500/RedwoodSunset_500.pfm 1489077883373 1489077893373
500/LabWindow_500.pfm 1489077895375 1489077905377
500/ArtistPalette_500.pfm 1489077907377 1489077917379
500/WaffleHouse_500.pfm 1489077919379 1489077929380
500/HancockKitchenOutside_500.pfm 1489077931381 1489077941383
500/GoldenGate(2)_500.pfm 1489077943383 1489077953385
500/AirBellowsGap_500.pfm 1489077955387 1489077965388
500/HooverDam_500.pfm 1489077967388 1489077977390
500/HancockKitchenInside_500.pfm 1489077979391 1489077989394
1000/Route66Museum_1000.pfm 1489077991394 1489078001395
1000/MammothHotSprings_1000.pfm 1489078003396 1489078013397
1000/PeckLake_1000.pfm 1489078015399 1489078025400
1000/RITTiger_1000.pfm 1489078027401 1489078037402
1000/OtterPoint_1000.pfm 1489078039403 1489078049405
1000/BloomingGorse(1)_1000.pfm 1489078051406 1489078061409
1000/HallofFame_1000.pfm 1489078063409 1489078073411
1000/AmikeusBeaverDamPM1_1000.pfm 1489078075413 1489078085413
1000/507_1000.pfm 1489078087414 1489078097416
1000/TheNarrows(2)_1000.pfm 1489078099417 1489078109419
1000/UpheavalDome_1000.pfm 1489078111420 1489078121420
1000/MasonLake(1)_1000.pfm 1489078123421 1489078133422
1000/MackinacBridge_1000.pfm 1489078135423 1489078145423
1000/BarHarborPresunrise_1000.pfm 1489078147424 1489078157426
1000/Zentrum_1000.pfm 1489078159426 1489078169429
1000/TupperLake(1)_1000.pfm 1489078171430 1489078181430
1000/Frontier_1000.pfm 1489078183431 1489078193437
1000/CemeteryTree(1)_1000.pfm 1489078195438 1489078205442
1000/Exploratorium(2)_1000.pfm 1489078207443 1489078217444
1000/SunsetPoint(1)_1000.pfm 1489078219445 1489078229448
2000/WillyDesk_2000.pfm 1489078231448 1489078241451
2000/HDRMark_2000.pfm 1489078243452 1489078253457
2000/TunnelView(2)_2000.pfm 1489078255458 1489078265461
2000/BigfootPass_2000.pfm 1489078267461 1489078277466
2000/TaughannockFalls_2000.pfm 1489078279467 1489078289469
2000/JesseBrownsCabin_2000.pfm 1489078291470 1489078301474
2000/RoundStoneBarn_2000.pfm 1489078303474 1489078313481
2000/AhwahneeGreatLounge_2000.pfm 1489078315483 1489078325488
2000/TupperLake(2)_2000.pfm 1489078327488 1489078337492
2000/DelicateFlowers_2000.pfm 1489078339493 1489078349499
2000/LittleRiver_2000.pfm 1489078351499 1489078361503
2000/Flamingo_2000.pfm 1489078363503 1489078373504
2000/BenJerrys_2000.pfm 1489078375505 1489078385508
2000/HancockSeedField_2000.pfm 1489078387508 1489078397514
2000/NiagaraFalls_2000.pfm 1489078399515 1489078409516
2000/DelicateArch_2000.pfm 1489078411516 1489078421524
2000/DevilsGolfCourse_2000.pfm 1489078423525 1489078433527
2000/CanadianFalls_2000.pfm 1489078435529 1489078445530
2000/BarHarborSunrise_2000.pfm 1489078447530 1489078457533
2000/TheGrotto_2000.pfm 1489078459533 1489078469539
