2000/Petroglyphs_2000.pfm 1489142879318 1489142889319
2000/SunsetPoint(1)_2000.pfm 1489142891320 1489142901322
2000/CemeteryTree(1)_2000.pfm 1489142903323 1489142913324
2000/WaffleHouse_2000.pfm 1489142915325 1489142925327
2000/HallofFame_2000.pfm 1489142927327 1489142937329
2000/KingsCanyon_2000.pfm 1489142939330 1489142949331
2000/McKeesPub_2000.pfm 1489142951332 1489142961333
2000/RITTiger_2000.pfm 1489142963334 1489142973336
2000/Peppermill_2000.pfm 1489142975336 1489142985339
2000/ArtistPalette_2000.pfm 1489142987339 1489142997342
2000/RedwoodSunset_2000.pfm 1489142999343 1489143009344
2000/HooverDam_2000.pfm 1489143011344 1489143021346
2000/BloomingGorse(2)_2000.pfm 1489143023347 1489143033348
2000/CadesCove_2000.pfm 1489143035349 1489143045350
2000/PeckLake_2000.pfm 1489143047351 1489143057352
2000/AirBellowsGap_2000.pfm 1489143059353 1489143069356
2000/MammothHotSprings_2000.pfm 1489143071356 1489143081358
2000/OtterPoint_2000.pfm 1489143083359 1489143093360
2000/UpheavalDome_2000.pfm 1489143095361 1489143105364
2000/BalancedRock_2000.pfm 1489143107364 1489143117367
500/HancockSeedField_500.pfm 1489143119368 1489143129369
500/OldFaithfulInn_500.pfm 1489143131369 1489143141372
500/MiddlePond_500.pfm 1489143143373 1489143153375
500/DevilsTower_500.pfm 1489143155376 1489143165378
500/HooverGarage_500.pfm 1489143167378 1489143177379
500/507_500.pfm 1489143179380 1489143189382
500/TaughannockFalls_500.pfm 1489143191383 1489143201385
500/Route66Museum_500.pfm 1489143203386 1489143213387
500/Flamingo_500.pfm 1489143215388 1489143225389
500/TupperLake(2)_500.pfm 1489143227389 1489143237391
500/HDRMark_500.pfm 1489143239392 1489143249392
500/AhwahneeGreatLounge_500.pfm 1489143251392 1489143261394
500/DelicateFlowers_500.pfm 1489143263395 1489143273397
500/PaulBunyan_500.pfm 1489143275398 1489143285400
500/FourCornersStorm_500.pfm 1489143287401 1489143297401
500/TheNarrows(2)_500.pfm 1489143299402 1489143309404
500/HalfDomeSunset_500.pfm 1489143311405 1489143321406
500/MackinacBridge_500.pfm 1489143323407 1489143333409
500/TheGrotto_500.pfm 1489143335410 1489143345412
500/GoldenGate(1)_500.pfm 1489143347412 1489143357414
1000/SmokyTunnel_1000.pfm 1489143359416 1489143369418
1000/LabBooth_1000.pfm 1489143371419 1489143381421
1000/JesseBrownsCabin_1000.pfm 1489143383421 1489143393423
1000/BarHarborSunrise_1000.pfm 1489143395423 1489143405426
1000/MirrorLake_1000.pfm 1489143407426 1489143417427
1000/BigfootPass_1000.pfm 1489143419428 1489143429431
1000/DevilsGolfCourse_1000.pfm 1489143431432 1489143441433
1000/MtRushmore(2)_1000.pfm 1489143443433 1489143453434
1000/BandonSunset(2)_1000.pfm 1489143455434 1489143465435
1000/NorthBubble_1000.pfm 1489143467435 1489143477436
1000/WallDrug_1000.pfm 1489143479438 1489143489440
1000/HancockKitchenInside_1000.pfm 1489143491440 1489143501443
1000/LasVegasStore_1000.pfm 1489143503443 1489143513445
1000/LuxoDoubleChecker_1000.pfm 1489143515445 1489143525447
1000/DevilsBathtub_1000.pfm 1489143527448 1489143537450
1000/M3MiddlePond_1000.pfm 1489143539452 1489143549453
1000/CanadianFalls_1000.pfm 1489143551453 1489143561459
1000/LittleRiver_1000.pfm 1489143563459 1489143573461
1000/DelicateArch_1000.pfm 1489143575461 1489143585463
1000/RoundStoneBarn_1000.pfm 1489143587463 1489143597467
4000/LetchworthTeaTable(1)_4000.pfm 1489143599469 1489143609474
4000/Exploratorium(2)_4000.pfm 1489143611474 1489143621478
4000/BenJerrys_4000.pfm 1489143623478 1489143633481
4000/LabTypewriter_4000.pfm 1489143635481 1489143645482
4000/MtRushmoreFlags_4000.pfm 1489143647482 1489143657485
4000/BarHarborPresunrise_4000.pfm 1489143659486 1489143669491
4000/CemeteryTree(2)_4000.pfm 1489143671491 1489143681498
4000/TupperLake(1)_4000.pfm 1489143683498 1489143693506
4000/BloomingGorse(1)_4000.pfm 1489143695506 1489143705509
4000/GoldenGate(2)_4000.pfm 1489143707509 1489143717511
4000/LabWindow_4000.pfm 1489143719513 1489143729518
4000/MasonLake(1)_4000.pfm 1489143731519 1489143741522
4000/WestBranchAusable(1)_4000.pfm 1489143743522 1489143753525
4000/Zentrum_4000.pfm 1489143755525 1489143765532
4000/AmikeusBeaverDamPM1_4000.pfm 1489143767532 1489143777533
4000/HancockKitchenOutside_4000.pfm 1489143779534 1489143789538
4000/NiagaraFalls_4000.pfm 1489143791539 1489143801545
4000/WillyDesk_4000.pfm 1489143803545 1489143813549
4000/TunnelView(2)_4000.pfm 1489143815550 1489143825556
4000/Frontier_4000.pfm 1489143827557 1489143837558
