4000/BloomingGorse(1)_4000.pfm 1493290639773 1493290649774
4000/TupperLake(2)_4000.pfm 1493290651774 1493290661776
4000/FourCornersStorm_4000.pfm 1493290663776 1493290673777
4000/MtRushmore(2)_4000.pfm 1493290675778 1493290685779
4000/BandonSunset(2)_4000.pfm 1493290687780 1493290697780
4000/LabWindow_4000.pfm 1493290699780 1493290709780
4000/GoldenGate(2)_4000.pfm 1493290711781 1493290721781
4000/TunnelView(2)_4000.pfm 1493290723781 1493290733783
4000/WillyDesk_4000.pfm 1493290735783 1493290745784
4000/NiagaraFalls_4000.pfm 1493290747784 1493290757785
4000/MtRushmoreFlags_4000.pfm 1493290759786 1493290769786
4000/DevilsTower_4000.pfm 1493290771787 1493290781787
4000/SmokyTunnel_4000.pfm 1493290783787 1493290793788
4000/LittleRiver_4000.pfm 1493290795788 1493290805790
4000/LabTypewriter_4000.pfm 1493290807790 1493290817790
4000/AirBellowsGap_4000.pfm 1493290819791 1493290829792
4000/CemeteryTree(2)_4000.pfm 1493290831793 1493290841794
4000/DelicateFlowers_4000.pfm 1493290843794 1493290853796
4000/HooverGarage_4000.pfm 1493290855796 1493290865797
4000/HDRMark_4000.pfm 1493290867797 1493290877797
500/BarHarborPresunrise_500.pfm 1493290879798 1493290889798
500/Zentrum_500.pfm 1493290891799 1493290901799
500/Frontier_500.pfm 1493290903799 1493290913801
500/Exploratorium(2)_500.pfm 1493290915801 1493290925803
500/Flamingo_500.pfm 1493290927803 1493290937804
500/BenJerrys_500.pfm 1493290939804 1493290949806
500/WaffleHouse_500.pfm 1493290951807 1493290961807
500/LuxoDoubleChecker_500.pfm 1493290963807 1493290973807
500/507_500.pfm 1493290975808 1493290985809
500/NorthBubble_500.pfm 1493290987810 1493290997811
500/WestBranchAusable(1)_500.pfm 1493290999811 1493291009812
500/BarHarborSunrise_500.pfm 1493291011813 1493291021813
500/HooverDam_500.pfm 1493291023813 1493291033813
500/MiddlePond_500.pfm 1493291035813 1493291045814
500/Peppermill_500.pfm 1493291047815 1493291057817
500/HancockSeedField_500.pfm 1493291059817 1493291069819
500/HalfDomeSunset_500.pfm 1493291071819 1493291081820
500/BigfootPass_500.pfm 1493291083820 1493291093822
500/SunsetPoint(1)_500.pfm 1493291095822 1493291105823
500/CemeteryTree(1)_500.pfm 1493291107824 1493291117825
1000/DelicateArch_1000.pfm 1493291119825 1493291129826
1000/LabBooth_1000.pfm 1493291131826 1493291141827
1000/TupperLake(1)_1000.pfm 1493291143827 1493291153828
1000/BalancedRock_1000.pfm 1493291155829 1493291165830
1000/CanadianFalls_1000.pfm 1493291167831 1493291177831
1000/OtterPoint_1000.pfm 1493291179832 1493291189833
1000/RITTiger_1000.pfm 1493291191834 1493291201835
1000/MasonLake(1)_1000.pfm 1493291203835 1493291213837
1000/Route66Museum_1000.pfm 1493291215837 1493291225837
1000/HancockKitchenInside_1000.pfm 1493291227837 1493291237838
1000/JesseBrownsCabin_1000.pfm 1493291239839 1493291249840
1000/PeckLake_1000.pfm 1493291251841 1493291261842
1000/MackinacBridge_1000.pfm 1493291263843 1493291273843
1000/TaughannockFalls_1000.pfm 1493291275844 1493291285843
1000/McKeesPub_1000.pfm 1493291287844 1493291297845
1000/GoldenGate(1)_1000.pfm 1493291299846 1493291309848
1000/TheNarrows(2)_1000.pfm 1493291311849 1493291321853
1000/CadesCove_1000.pfm 1493291323853 1493291333853
1000/KingsCanyon_1000.pfm 1493291335853 1493291345858
1000/RoundStoneBarn_1000.pfm 1493291347859 1493291357862
2000/MammothHotSprings_2000.pfm 1493291359862 1493291369868
2000/DevilsBathtub_2000.pfm 1493291371869 1493291381873
2000/BloomingGorse(2)_2000.pfm 1493291383873 1493291393877
2000/Petroglyphs_2000.pfm 1493291395877 1493291405878
2000/WallDrug_2000.pfm 1493291407879 1493291417882
2000/M3MiddlePond_2000.pfm 1493291419883 1493291429890
2000/MirrorLake_2000.pfm 1493291431890 1493291441895
2000/LetchworthTeaTable(1)_2000.pfm 1493291443896 1493291453898
2000/TheGrotto_2000.pfm 1493291455898 1493291465903
2000/AhwahneeGreatLounge_2000.pfm 1493291467904 1493291477908
2000/ArtistPalette_2000.pfm 1493291479908 1493291489913
2000/RedwoodSunset_2000.pfm 1493291491913 1493291501919
2000/HancockKitchenOutside_2000.pfm 1493291503920 1493291513921
2000/OldFaithfulInn_2000.pfm 1493291515922 1493291525926
2000/AmikeusBeaverDamPM1_2000.pfm 1493291527927 1493291537930
2000/DevilsGolfCourse_2000.pfm 1493291539930 1493291549931
2000/PaulBunyan_2000.pfm 1493291551932 1493291561932
2000/LasVegasStore_2000.pfm 1493291563933 1493291573938
2000/UpheavalDome_2000.pfm 1493291575938 1493291585944
2000/HallofFame_2000.pfm 1493291587944 1493291597950
