500/CemeteryTree(2)_500.pfm
500/Iwate_500.pfm
500/SunsetPoint(2)_500.pfm
500/Cafe_500.pfm
500/B_(10)_500.pfm
500/smith_welding_000918_500.pfm
500/Route66Museum_500.pfm
500/cars_longshot_001073_500.pfm
500/FORTH1_500.pfm
500/CreteSunset1_500.pfm
500/ArtistPalette_500.pfm
500/B_(17)_500.pfm
500/LasVegasStore_500.pfm
500/NorthBubble_500.pfm
500/carousel_fireworks_05_000870_500.pfm
500/SwissSunset_500.pfm
500/bistro_01_000314_500.pfm
500/Knossos2_500.pfm
500/carousel_fireworks_08_000001_500.pfm
500/B_(16)_500.pfm
500/WalkPath_1920x1080p_24_hf_709_ct2020_444_00235_500.pfm
500/00000_500.pfm
500/LabWindow_500.pfm
500/HallofFame_500.pfm
500/showgirl_01_000308_500.pfm
500/CreteSeashore1_500.pfm
500/HorseshoeLake_500.pfm
500/OldFaithfulInn_500.pfm
500/Garden_500.pfm
500/showgirl_02_000684_500.pfm
500/Knossos5_500.pfm
500/00083_500.pfm
500/StoneTower1_500.pfm
500/TheGrotto_500.pfm
500/RevelStoke_500.pfm
500/B_(9)_500.pfm
500/HooverDam_500.pfm
500/WallDrug_500.pfm
500/B_(8)_500.pfm
500/fireplace_02_000484_500.pfm
500/B_(18)_500.pfm
500/Flamingo_500.pfm
500/TunnelView(2)_500.pfm
500/MammothHotSprings_500.pfm
500/MarketMires2_500.pfm
500/carousel_fireworks_02_001055_500.pfm
500/OtterPoint_500.pfm
500/fishing_longshot_001249_500.pfm
500/GoldenGate(1)_500.pfm
500/Frontier_500.pfm
500/snow_500.pfm
500/poker_fullshot_000478_500.pfm
500/RITTiger_500.pfm
500/TheNarrows(2)_500.pfm
500/M3MiddlePond_500.pfm
500/DevilsBathtub_500.pfm
500/HDRMark_500.pfm
500/bistro_03_000914_500.pfm
500/DevilsTower_500.pfm
500/carousel_fireworks_01_001227_500.pfm
