8000/HallofFame_8000.pfm
8000/WalkPath_1920x1080p_24_hf_709_ct2020_444_00235_8000.pfm
8000/carousel_fireworks_05_000870_8000.pfm
8000/B_(9)_8000.pfm
8000/fishing_longshot_001249_8000.pfm
8000/Route66Museum_8000.pfm
8000/OtterPoint_8000.pfm
8000/StoneTower1_8000.pfm
8000/DevilsBathtub_8000.pfm
8000/Garden_8000.pfm
8000/ArtistPalette_8000.pfm
8000/B_(16)_8000.pfm
8000/HDRMark_8000.pfm
8000/SunsetPoint(2)_8000.pfm
8000/CreteSeashore1_8000.pfm
8000/CreteSunset1_8000.pfm
8000/TunnelView(2)_8000.pfm
8000/CemeteryTree(2)_8000.pfm
8000/bistro_01_000314_8000.pfm
8000/LabWindow_8000.pfm
8000/HooverDam_8000.pfm
8000/B_(17)_8000.pfm
8000/B_(10)_8000.pfm
8000/RevelStoke_8000.pfm
8000/GoldenGate(1)_8000.pfm
8000/carousel_fireworks_02_001055_8000.pfm
8000/B_(18)_8000.pfm
8000/TheGrotto_8000.pfm
8000/Knossos5_8000.pfm
8000/poker_fullshot_000478_8000.pfm
8000/LasVegasStore_8000.pfm
8000/RITTiger_8000.pfm
8000/WallDrug_8000.pfm
8000/00000_8000.pfm
8000/Knossos2_8000.pfm
8000/B_(8)_8000.pfm
8000/Cafe_8000.pfm
8000/MarketMires2_8000.pfm
8000/showgirl_01_000308_8000.pfm
8000/Iwate_8000.pfm
8000/OldFaithfulInn_8000.pfm
8000/snow_8000.pfm
8000/carousel_fireworks_08_000001_8000.pfm
8000/SwissSunset_8000.pfm
8000/showgirl_02_000684_8000.pfm
8000/TheNarrows(2)_8000.pfm
8000/HorseshoeLake_8000.pfm
8000/00083_8000.pfm
8000/smith_welding_000918_8000.pfm
8000/Frontier_8000.pfm
8000/NorthBubble_8000.pfm
8000/M3MiddlePond_8000.pfm
8000/MammothHotSprings_8000.pfm
8000/Flamingo_8000.pfm
8000/cars_longshot_001073_8000.pfm
8000/carousel_fireworks_01_001227_8000.pfm
8000/FORTH1_8000.pfm
8000/bistro_03_000914_8000.pfm
8000/DevilsTower_8000.pfm
8000/fireplace_02_000484_8000.pfm
