4000/TheNarrows(2)_4000.pfm
4000/Frontier_4000.pfm
4000/carousel_fireworks_05_000870_4000.pfm
4000/LasVegasStore_4000.pfm
4000/HDRMark_4000.pfm
4000/FORTH1_4000.pfm
4000/B_(10)_4000.pfm
4000/SwissSunset_4000.pfm
4000/bistro_01_000314_4000.pfm
4000/CemeteryTree(2)_4000.pfm
4000/00083_4000.pfm
4000/bistro_03_000914_4000.pfm
4000/showgirl_01_000308_4000.pfm
4000/CreteSunset1_4000.pfm
4000/RevelStoke_4000.pfm
4000/snow_4000.pfm
4000/M3MiddlePond_4000.pfm
4000/RITTiger_4000.pfm
4000/HorseshoeLake_4000.pfm
4000/fireplace_02_000484_4000.pfm
4000/poker_fullshot_000478_4000.pfm
4000/B_(16)_4000.pfm
4000/Cafe_4000.pfm
4000/StoneTower1_4000.pfm
4000/MarketMires2_4000.pfm
4000/WallDrug_4000.pfm
4000/HallofFame_4000.pfm
4000/OtterPoint_4000.pfm
4000/B_(18)_4000.pfm
4000/B_(17)_4000.pfm
4000/Knossos2_4000.pfm
4000/fishing_longshot_001249_4000.pfm
4000/B_(9)_4000.pfm
4000/DevilsBathtub_4000.pfm
4000/MammothHotSprings_4000.pfm
4000/B_(8)_4000.pfm
4000/carousel_fireworks_01_001227_4000.pfm
4000/smith_welding_000918_4000.pfm
4000/OldFaithfulInn_4000.pfm
4000/CreteSeashore1_4000.pfm
4000/carousel_fireworks_08_000001_4000.pfm
4000/showgirl_02_000684_4000.pfm
4000/Knossos5_4000.pfm
4000/LabWindow_4000.pfm
4000/Iwate_4000.pfm
4000/00000_4000.pfm
4000/SunsetPoint(2)_4000.pfm
4000/carousel_fireworks_02_001055_4000.pfm
4000/Garden_4000.pfm
4000/GoldenGate(1)_4000.pfm
4000/DevilsTower_4000.pfm
4000/TheGrotto_4000.pfm
4000/ArtistPalette_4000.pfm
4000/Route66Museum_4000.pfm
4000/TunnelView(2)_4000.pfm
4000/WalkPath_1920x1080p_24_hf_709_ct2020_444_00235_4000.pfm
4000/HooverDam_4000.pfm
4000/cars_longshot_001073_4000.pfm
4000/Flamingo_4000.pfm
4000/NorthBubble_4000.pfm
