2000/Flamingo_2000.pfm
2000/Cafe_2000.pfm
2000/B_(8)_2000.pfm
2000/B_(17)_2000.pfm
2000/StoneTower1_2000.pfm
2000/Route66Museum_2000.pfm
2000/00083_2000.pfm
2000/SwissSunset_2000.pfm
2000/B_(10)_2000.pfm
2000/DevilsTower_2000.pfm
2000/B_(18)_2000.pfm
2000/MammothHotSprings_2000.pfm
2000/showgirl_01_000308_2000.pfm
2000/WalkPath_1920x1080p_24_hf_709_ct2020_444_00235_2000.pfm
2000/RITTiger_2000.pfm
2000/M3MiddlePond_2000.pfm
2000/DevilsBathtub_2000.pfm
2000/poker_fullshot_000478_2000.pfm
2000/B_(9)_2000.pfm
2000/ArtistPalette_2000.pfm
2000/CreteSunset1_2000.pfm
2000/HooverDam_2000.pfm
2000/OldFaithfulInn_2000.pfm
2000/SunsetPoint(2)_2000.pfm
2000/fireplace_02_000484_2000.pfm
2000/00000_2000.pfm
2000/GoldenGate(1)_2000.pfm
2000/NorthBubble_2000.pfm
2000/Knossos2_2000.pfm
2000/cars_longshot_001073_2000.pfm
2000/FORTH1_2000.pfm
2000/TunnelView(2)_2000.pfm
2000/snow_2000.pfm
2000/carousel_fireworks_01_001227_2000.pfm
2000/bistro_01_000314_2000.pfm
2000/WallDrug_2000.pfm
2000/Iwate_2000.pfm
2000/Garden_2000.pfm
2000/HorseshoeLake_2000.pfm
2000/CreteSeashore1_2000.pfm
2000/showgirl_02_000684_2000.pfm
2000/OtterPoint_2000.pfm
2000/MarketMires2_2000.pfm
2000/Frontier_2000.pfm
2000/LasVegasStore_2000.pfm
2000/CemeteryTree(2)_2000.pfm
2000/RevelStoke_2000.pfm
2000/bistro_03_000914_2000.pfm
2000/HDRMark_2000.pfm
2000/Knossos5_2000.pfm
2000/HallofFame_2000.pfm
2000/TheNarrows(2)_2000.pfm
2000/fishing_longshot_001249_2000.pfm
2000/TheGrotto_2000.pfm
2000/smith_welding_000918_2000.pfm
2000/carousel_fireworks_05_000870_2000.pfm
2000/B_(16)_2000.pfm
2000/carousel_fireworks_08_000001_2000.pfm
2000/carousel_fireworks_02_001055_2000.pfm
2000/LabWindow_2000.pfm
