1.4323,1.6439,1.3665
2.6769,2.5717,3.3167
1.7471,2.3454,2.2248
1.1521,1.7934,1.7139
1.4101,1.5024,1.8617
2.6494,2.3864,4.0134
2.8703,3.5025,3.4996
2.1215,1.8725,2.486
2.2456,1.7013,2.2262
1.8906,1.6114,1.8986
1.7851,2.0994,1.8228
1.866,2.8946,2.8449
1.3578,1.6002,1.8077
1.2699,2.0437,1.975
1.6006,2.0063,2.0968
1.4309,2.5618,2.2003
2.4986,4.001,2.9708
2.5925,3.2252,3.3195
1.8103,2.1787,2.6964
1.8509,2.7738,2.332
3.233,3.0499,3.8938
2.6561,3.0579,2.9837
1.3996,1.945,2.474
2.0585,2.1712,2.6713
2.0987,2.0746,1.4679
1.768,1.7249,1.8898
2.2672,2.7009,2.6342
1.7016,2.05,2.0463
2.1183,2.7925,2.9548
3.8744,4.5099,2.9464
2.0547,2.2272,2.3139
2.0821,1.9719,1.7687
1.9232,1.3092,2.9824
1.4193,1.0062,1.7873
1.797,2.7698,1.9157
2.0513,2.1718,2.0261
3.2283,3.3989,3.546
3.427,3.4289,2.7148
2.4385,3.9693,3.0746
1.2217,1.6851,1.6599
1.5431,2.1055,2.2956
1.5295,1.9936,2.225
1.4621,1.2417,1.5869
1.99,1.5582,2.6511
1.3786,1.7827,2.6329
2.6566,2.4032,1.7592
1.9832,2.6335,3.0581
2.2118,3.5068,3.0736
1.8845,2.6916,2.0231
2.8435,2.366,2.949
2.4084,2.6832,3.1711
3.8722,2.7174,3.5432
2.4443,1.89,3.3155
2.4773,3.6255,3.2908
1.8106,3.1785,2.9012
2.7844,3.3818,3.3665
3.1659,3.1518,2.699
2.9873,4.7871,4.4141
2.6788,2.8931,3.0738
1.6634,2.1966,2.388
