1.0259,0.77628,0.83698,3.2156,0.92845,1.679
0.17897,0.59693,0.58911,1.3395,1.1438,0.4063
0.58148,0.54143,0.3605,0.73976,1.0889,1.3309
1.5623,0.67013,1.7973,1.3893,0.90668,0.56053
0.30786,0.69049,0.69974,0.84449,0.60196,0.91683
1.7859,0.66698,3.4772,0.84888,1.1038,0.8572
0.72057,0.43096,0.66127,0.92669,0.94268,0.82982
0.32802,0.43157,0.45371,0.59047,0.40335,0.5356
0.33166,1.122,1.3809,0.70637,0.61258,0.65552
1.9548,1.7772,0.99676,1.2369,0.98803,0.76098
1.297,2.3213,1.7272,0.66358,1.0086,0.7269
1.6043,1.4173,1.5709,0.77919,1.632,1.9613
0.99631,1.0976,1.178,1.6075,1.8125,1.1641
1.2005,1.5529,1.5733,0.72001,0.91334,0.82383
1.4526,1.6708,1.3783,0.83482,0.70473,0.92837
1.7725,1.5418,1.415,1.6166,2.6821,1.4242
0.59543,0.85489,0.97339,1.1392,0.6222,0.64055
1.3129,0.71854,0.82105,0.91227,0.54459,0.67442
0.94177,0.52374,0.6877,0.83648,0.37278,0.72543
0.58883,0.80714,0.51101,0.6606,0.83277,0.67626
0.93595,0.42539,0.99048,0.41187,0.5126,0.44992
1.3585,0.77151,0.75465,1.2452,0.82492,0.64887
0.62742,0.8898,0.90347,0.83768,1.0577,0.68161
2.3361,1.3793,3.0923,2.5023,1.6656,0.66343
1.0324,0.46446,0.60484,1.4924,1.5655,1.4159
0.8659,1.4687,0.44072,0.49568,0.54008,0.50138
0.69027,1.3119,0.7172,0.84099,0.66903,0.56335
0.82692,0.81166,0.54514,0.50887,0.63479,0.36249
0.47297,0.50171,0.53442,0.61861,0.73134,0.63673
0.30134,0.21301,0.34105,0.82936,0.79535,0.68631
0.65826,0.72517,0.70232,0.61653,0.80033,0.51508
1.1282,1.0593,1.3554,0.61745,0.7503,0.71637
0.69895,0.7435,0.86335,1.0681,1.125,1.697
1.0517,1.0351,1.9904,0.96207,0.72119,1.1352
1.2337,1.1771,0.49316,1.906,1.3889,1.2526
1.1413,1.0258,0.94613,0.67267,0.75224,0.51747
1.0886,1.1263,1.6433,1.3489,0.69398,1.2957
1.0703,0.67352,0.74178,0.60378,1.2278,0.96161
0.47576,1.0477,0.6275,1.4162,1.4704,0.58413
1.3397,1.1925,1.4343,0.68226,0.6916,0.55479
0.78043,0.6828,0.53327,1.0445,1.3468,1.1715
1.7518,0.73047,1.834,1.2012,1.1202,1.1786
1.8618,0.90586,1.0874,0.69882,0.68125,0.73264
1.1582,1.5524,2.3059,1.7248,0.94113,3.0389
1.5532,1.2266,2.6553,1.1352,1.4412,1.2863
1.0599,1.2956,0.79939,0.32271,0.61033,0.92
1.0429,0.56581,0.94289,0.85352,1.9213,3.2342
0.35054,0.75189,0.74666,0.59453,0.69068,0.2871
1.9774,1.7431,0.59222,0.73436,0.70141,0.70319
0.40131,0.59508,0.40308,0.94879,0.31875,1.3038
0.52984,0.58697,0.78345,0.99485,0.61957,0.75123
0.92822,1.2687,2.2682,1.5698,1.7524,0.58172
0.37251,0.22172,0.56054,0.37725,0.45869,0.71351
0.40144,0.55806,0.15983,1.3809,1.3963,0.51043
0.24087,0.3317,0.27184,0.91904,0.96824,1.2646
0.69948,0.82194,0.42676,0.76656,0.5546,0.14119
0.89364,0.52147,0.74653,0.89586,1.0738,0.75503
2.203,0.87694,2.9426,0.48402,1.6605,1.4535
1.9228,0.67127,1.3099,1.6939,0.75695,3.0885
0.78608,1.2935,1.6209,0.93678,1.2311,1.2381
