4000/PaulBunyan_4000.pfm
4000/UpheavalDome_4000.pfm
4000/MtRushmore(2)_4000.pfm
4000/OtterPoint_4000.pfm
4000/Flamingo_4000.pfm
4000/LetchworthTeaTable(1)_4000.pfm
4000/HooverGarage_4000.pfm
4000/WallDrug_4000.pfm
4000/Frontier_4000.pfm
4000/CemeteryTree(1)_4000.pfm
4000/BarHarborSunrise_4000.pfm
4000/KingsCanyon_4000.pfm
4000/Petroglyphs_4000.pfm
4000/RoundStoneBarn_4000.pfm
4000/MammothHotSprings_4000.pfm
4000/AhwahneeGreatLounge_4000.pfm
4000/RedwoodSunset_4000.pfm
4000/WestBranchAusable(1)_4000.pfm
4000/RITTiger_4000.pfm
4000/HDRMark_4000.pfm
2000/CanadianFalls_2000.pfm
2000/BigfootPass_2000.pfm
2000/LuxoDoubleChecker_2000.pfm
2000/NorthBubble_2000.pfm
2000/TupperLake(1)_2000.pfm
2000/BarHarborPresunrise_2000.pfm
2000/BalancedRock_2000.pfm
2000/Exploratorium(2)_2000.pfm
2000/MtRushmoreFlags_2000.pfm
2000/HalfDomeSunset_2000.pfm
2000/WaffleHouse_2000.pfm
2000/CadesCove_2000.pfm
2000/JesseBrownsCabin_2000.pfm
2000/MiddlePond_2000.pfm
2000/BloomingGorse(1)_2000.pfm
2000/MirrorLake_2000.pfm
2000/HallofFame_2000.pfm
2000/HancockKitchenOutside_2000.pfm
2000/AirBellowsGap_2000.pfm
2000/TupperLake(2)_2000.pfm
1000/TheNarrows(2)_1000.pfm
1000/LabWindow_1000.pfm
1000/OldFaithfulInn_1000.pfm
1000/TunnelView(2)_1000.pfm
1000/MasonLake(1)_1000.pfm
1000/McKeesPub_1000.pfm
1000/WillyDesk_1000.pfm
1000/Route66Museum_1000.pfm
1000/AmikeusBeaverDamPM1_1000.pfm
1000/TaughannockFalls_1000.pfm
1000/DevilsTower_1000.pfm
1000/HooverDam_1000.pfm
1000/DevilsBathtub_1000.pfm
1000/MackinacBridge_1000.pfm
1000/TheGrotto_1000.pfm
1000/BenJerrys_1000.pfm
1000/507_1000.pfm
1000/M3MiddlePond_1000.pfm
1000/LittleRiver_1000.pfm
1000/CemeteryTree(2)_1000.pfm
500/LasVegasStore_500.pfm
500/LabTypewriter_500.pfm
500/DevilsGolfCourse_500.pfm
500/DelicateFlowers_500.pfm
500/HancockKitchenInside_500.pfm
500/PeckLake_500.pfm
500/LabBooth_500.pfm
500/ArtistPalette_500.pfm
500/HancockSeedField_500.pfm
500/NiagaraFalls_500.pfm
500/FourCornersStorm_500.pfm
500/SunsetPoint(1)_500.pfm
500/GoldenGate(1)_500.pfm
500/GoldenGate(2)_500.pfm
500/Zentrum_500.pfm
500/SmokyTunnel_500.pfm
500/BloomingGorse(2)_500.pfm
500/BandonSunset(2)_500.pfm
500/DelicateArch_500.pfm
500/Peppermill_500.pfm
