1000/MiddlePond_1000.pfm
1000/SmokyTunnel_1000.pfm
1000/Petroglyphs_1000.pfm
1000/DevilsBathtub_1000.pfm
1000/HooverDam_1000.pfm
1000/MackinacBridge_1000.pfm
1000/HancockSeedField_1000.pfm
1000/HancockKitchenOutside_1000.pfm
1000/JesseBrownsCabin_1000.pfm
1000/HancockKitchenInside_1000.pfm
1000/AmikeusBeaverDamPM1_1000.pfm
1000/RITTiger_1000.pfm
1000/PaulBunyan_1000.pfm
1000/BloomingGorse(1)_1000.pfm
1000/ArtistPalette_1000.pfm
1000/DelicateArch_1000.pfm
1000/BalancedRock_1000.pfm
1000/Frontier_1000.pfm
1000/DevilsGolfCourse_1000.pfm
1000/LabBooth_1000.pfm
2000/HooverGarage_2000.pfm
2000/TheNarrows(2)_2000.pfm
2000/LittleRiver_2000.pfm
2000/MirrorLake_2000.pfm
2000/HalfDomeSunset_2000.pfm
2000/Peppermill_2000.pfm
2000/BigfootPass_2000.pfm
2000/RedwoodSunset_2000.pfm
2000/CemeteryTree(1)_2000.pfm
2000/SunsetPoint(1)_2000.pfm
2000/LabWindow_2000.pfm
2000/DelicateFlowers_2000.pfm
2000/CemeteryTree(2)_2000.pfm
2000/GoldenGate(2)_2000.pfm
2000/MtRushmore(2)_2000.pfm
2000/BandonSunset(2)_2000.pfm
2000/WillyDesk_2000.pfm
2000/LuxoDoubleChecker_2000.pfm
2000/TaughannockFalls_2000.pfm
2000/TupperLake(1)_2000.pfm
500/507_500.pfm
500/RoundStoneBarn_500.pfm
500/FourCornersStorm_500.pfm
500/DevilsTower_500.pfm
500/CanadianFalls_500.pfm
500/NorthBubble_500.pfm
500/MtRushmoreFlags_500.pfm
500/TunnelView(2)_500.pfm
500/HallofFame_500.pfm
500/WallDrug_500.pfm
500/CadesCove_500.pfm
500/M3MiddlePond_500.pfm
500/Zentrum_500.pfm
500/LabTypewriter_500.pfm
500/BenJerrys_500.pfm
500/TupperLake(2)_500.pfm
500/WaffleHouse_500.pfm
500/BarHarborPresunrise_500.pfm
500/NiagaraFalls_500.pfm
500/OldFaithfulInn_500.pfm
4000/MammothHotSprings_4000.pfm
4000/OtterPoint_4000.pfm
4000/WestBranchAusable(1)_4000.pfm
4000/LasVegasStore_4000.pfm
4000/Route66Museum_4000.pfm
4000/UpheavalDome_4000.pfm
4000/BarHarborSunrise_4000.pfm
4000/TheGrotto_4000.pfm
4000/MasonLake(1)_4000.pfm
4000/LetchworthTeaTable(1)_4000.pfm
4000/GoldenGate(1)_4000.pfm
4000/BloomingGorse(2)_4000.pfm
4000/Flamingo_4000.pfm
4000/KingsCanyon_4000.pfm
4000/AhwahneeGreatLounge_4000.pfm
4000/AirBellowsGap_4000.pfm
4000/HDRMark_4000.pfm
4000/Exploratorium(2)_4000.pfm
4000/McKeesPub_4000.pfm
4000/PeckLake_4000.pfm
