500,1,47
8000,1,98
500,2,167
8000,2,252
500,3,386
8000,3,148
500,1,31
8000,1,19
500,2,117
8000,2,109
500,3,108
8000,3,83
500,1,40
8000,1,154
500,2,36
8000,2,77
500,3,130
8000,3,51
500,1,121
8000,1,46
500,2,259
8000,2,223
8000,3,70
500,1,186
8000,1,37
500,2,264
8000,2,54
500,3,39
8000,3,107
500,1,42
8000,1,249
500,2,473
8000,2,131
500,3,86
8000,3,65
500,1,204
8000,1,86
500,2,63
8000,2,196
500,3,637
8000,3,121
500,1,51
8000,1,406
500,2,101
8000,2,90
500,3,25
8000,3,223
